Análise Básica de Dados: Experimentos | R para Estudantes de Marketing
…
#powercc <- read_excel("power_conspicuous_consumption.xlsx","data") # Importe o arquivo Excel. Perceba que o nome da aba do Excel eh data

library(readxl)

url<-"http://users.telenet.be/samuelfranssens/tutorial_data/power_conspicuous_consumption.xlsx"
powercc <- tempfile()
download.file(url, powercc, mode="wb")
powercc<-read_excel(path = powercc, sheet = 1)

powercc

## # A tibble: 147 x 39
##    subject start_date          end_date            duration finished power audience
##      <dbl> <dttm>              <dttm>                 <dbl>    <dbl> <chr> <chr>   
##  1       1 2012-04-19 09:32:56 2012-04-19 09:49:42    1006.        1 high  public  
##  2       2 2012-04-19 09:31:26 2012-04-19 09:51:13    1187.        1 low   public  
##  3       3 2012-04-19 09:29:50 2012-04-19 09:53:10    1400.        1 low   public  
##  4       4 2012-04-19 09:26:25 2012-04-19 09:53:21    1616.        1 low   public  
##  5       5 2012-04-19 09:20:55 2012-04-19 09:54:21    2006.        1 high  public  
##  6       6 2012-04-19 09:28:02 2012-04-19 09:55:50    1668.        1 high  public  
##  7       7 2012-04-19 09:17:54 2012-04-19 09:58:49    2455.        1 low   public  
##  8       8 2012-04-19 09:22:26 2012-04-19 10:01:40    2354.        1 high  public  
##  9       9 2012-04-19 10:13:12 2012-04-19 10:31:03    1071.        1 low   public  
## 10      10 2012-04-19 10:12:55 2012-04-19 10:31:29    1114.        1 high  public  
## # ... with 137 more rows, and 32 more variables: group_size <dbl>, gender <chr>,
## #   age <dbl>, dominance1 <dbl>, dominance2 <dbl>, dominance3 <dbl>, dominance4 <dbl>,
## #   dominance5 <dbl>, dominance6 <dbl>, dominance7 <dbl>, sa1 <dbl>, sa2 <dbl>, sa3 <dbl>,
## #   sa4 <dbl>, sa5 <dbl>, sa6 <dbl>, sa7 <dbl>, sa8 <dbl>, sa9 <dbl>, sa10 <dbl>,
## #   sa11 <dbl>, inconspicuous1 <dbl>, inconspicuous2 <dbl>, inconspicuous3 <dbl>,
## #   inconspicuous4 <dbl>, inconspicuous5 <dbl>, conspicuous1 <dbl>, conspicuous2 <dbl>,
## #   conspicuous3 <dbl>, conspicuous4 <dbl>, conspicuous5 <dbl>, agree <dbl>
…
# Converter de grande para longo significa que estamos empilhando varias colunas umas sobre as outras. Para isso, precisamos de uma variavel extra para acompanhar qual coluna estamos lidando.
# A funcao de coleta converte conjuntos de dados de amplos para longos.
# O primeiro argumento (consumer_type) nos dira com qual coluna estamos lidando. Essa eh a variavel que armazenara os nomes das colunas que estamos empilhando.
# O segundo argumento (wtp) armazenara as colunas reais empilhadas umas sobre as outras.
# Os argumentos a seguir sao as colunas que queremos empilhar.

# Entao, dizemos ao gather para criar duas novas variaveis: tipo_de_consumo e vontade de pagar, para representar o empilhamento de um determinado numero de colunas.

# Vamos dizer ao R para nos mostrar apenas as colunas relevantes (isto eh apenas para fins de apresentacao):

powercc.long %>%
  select(subject, power, audience, consumption_type, wtp) %>% 
  arrange(subject)

## # A tibble: 286 x 5
##    subject power audience consumption_type   wtp
##    <fct>   <fct> <fct>    <chr>            <dbl>
##  1 1       high  public   cc                 5  
##  2 1       high  public   icc                2.6
##  3 2       low   public   cc                 7.6
##  4 2       low   public   icc                4  
##  5 3       low   public   cc                 5.4
##  6 3       low   public   icc                3.4
##  7 4       low   public   cc                 8.4
##  8 4       low   public   icc                5.2
##  9 5       high  public   cc                 7.8
## 10 5       high  public   icc                3  
## # ... with 276 more rows

Temos duas linhas por assunto, uma coluna de disposição para pagar e outra coluna (tipo de consumo) que indica se está disposta a pagar por produtos visíveis ou imperceptíveis. Compare isso com o amplo conjunto de dados:

powercc %>% 
  select(subject, power, audience, cc, icc) %>% 
  arrange(subject) # Mostre somente as colunas relevantes

## # A tibble: 143 x 5
##    subject power audience    cc   icc
##    <fct>   <fct> <fct>    <dbl> <dbl>
##  1 1       high  public     5     2.6
##  2 2       low   public     7.6   4  
##  3 3       low   public     5.4   3.4
##  4 4       low   public     8.4   5.2
##  5 5       high  public     7.8   3  
##  6 6       high  public     7.2   5  
##  7 7       low   public     4.8   4  
##  8 8       high  public     6.6   4.4
##  9 9       low   public     5.8   4.2
## 10 10      high  public     6.8   3.4
## # ... with 133 more rows
…
