Análise Conjunta | R para Estudantes de Marketing
…
Vamos reter para cada indivíduo apenas seu perfil mais bem classificado. Podemos fazer isso agrupando por entrevistado e adicionando uma variável denominada ranking que nos dirá o ranking de perfis, com base na classificação prevista, para cada entrevistado:

highest_rated <- predict(conjoint_perrespondent, market_profiles) %>% 
  group_by(respondent) %>% 
  mutate(ranking = rank(Prediction))

# dando uma olhada
highest_rated %>% 
  arrange(respondent, ranking)

## # A tibble: 60 x 7
## # Groups:   respondent [15]
##    respondent    Flavor     Packaging     Light    Organic    Prediction ranking
##    <chr>         <fct>      <fct>         <fct>    <fct>           <dbl>   <dbl>
##  1 Individual 1  Raspberry  Homemade waf~ No low ~ Not organ~       1.3        1
##  2 Individual 1  Chocolate  Cone          No low ~ Not organ~       2.80       2
##  3 Individual 1  Raspberry  Homemade waf~ Low fat  Organic          3.7        3
##  4 Individual 1  Strawberry Cone          Low fat  Not organ~       8.8        4
##  5 Individual 10 Strawberry Cone          Low fat  Not organ~       2.03       1
##  6 Individual 10 Chocolate  Cone          No low ~ Not organ~       5.37       2
##  7 Individual 10 Raspberry  Homemade waf~ Low fat  Organic          8.97       3
##  8 Individual 10 Raspberry  Homemade waf~ No low ~ Not organ~       9.95       4
##  9 Individual 11 Raspberry  Homemade waf~ No low ~ Not organ~       2.8        1
## 10 Individual 11 Chocolate  Cone          No low ~ Not organ~       3.80       2
## # ... with 50 more rows
…
