Análise de componentes principais para mapas perceptivos (toothpaste dataset) | R para Estudantes de Marketing
…
## -- Conflicts ----------------------------------------------------- tidyverse_conflicts() --
## x dplyr::filter() masks stats::filter()
## x dplyr::lag()    masks stats::lag()

library(readxl)

url<-"http://users.telenet.be/samuelfranssens/tutorial_data/toothpaste.xlsx"
toothpaste <- tempfile()
download.file(url, toothpaste, mode="wb")
toothpaste<-read_excel(path = toothpaste, sheet = 1)

toothpaste

## # A tibble: 60 x 9
##    consumer prevents_caviti~ shiny_teeth strengthens_gums freshens_breath
##       <dbl>            <dbl>       <dbl>            <dbl>           <dbl>
##  1        1                7           3                6               4
##  2        2                1           3                2               4
##  3        3                6           2                7               4
##  4        4                4           5                4               6
##  5        5                1           2                2               3
##  6        6                6           3                6               4
##  7        7                5           3                6               3
##  8        8                6           4                7               4
##  9        9                3           4                2               3
## 10       10                2           6                2               6
## # ... with 50 more rows, and 4 more variables:
## #   decay_prevention_unimportant <dbl>, attractive_teeth <dbl>, age <dbl>,
## #   gender <chr>

Manipulação

toothpaste # Visualiza os dados

## # A tibble: 60 x 9
##    consumer prevents_caviti~ shiny_teeth strengthens_gums freshens_breath
##       <dbl>            <dbl>       <dbl>            <dbl>           <dbl>
##  1        1                7           3                6               4
##  2        2                1           3                2               4
##  3        3                6           2                7               4
##  4        4                4           5                4               6
##  5        5                1           2                2               3
##  6        6                6           3                6               4
##  7        7                5           3                6               3
##  8        8                6           4                7               4
##  9        9                3           4                2               3
## 10       10                2           6                2               6
## # ... with 50 more rows, and 4 more variables:
## #   decay_prevention_unimportant <dbl>, attractive_teeth <dbl>, age <dbl>,
## #   gender <chr>
…
