Análise básica de dados: analisando dados secundários | R para Estudantes de Marketing
…
Posteriormente, testaremos se o preço está relacionado a determinadas características dos tipos de quartos. As características potencialmente interessantes são: room_type, city, reviews, overall_satisfaction, etc. Para torná-lo ainda mais interessante, podemos aumentar os dados, por exemplo, com dados disponíveis publicamente nas cidades. Reuni os tamanhos de população das cidades belgas mais populosas deste site. Faça o download desses dados (aqui) e importe-os para o R:

#population <- read_excel("population.xlsx","data")

library(readxl)

url<-"http://users.telenet.be/samuelfranssens/tutorial_data/population.xlsx"
population <- tempfile()
download.file(url, population, mode="wb")
population<-read_excel(path = population, sheet = 1)

population

## # A tibble: 183 x 2
##    place     population
##    <chr>          <dbl>
##  1 Brussels     1019022
##  2 Antwerpen     459805
##  3 Gent          231493
##  4 Charleroi     200132
##  5 Liège         182597
##  6 Brugge        116709
##  7 Namur         106284
##  8 Leuven         92892
##  9 Mons           91277
## 10 Aalst          77534
## # ... with 173 more rows
…
