Introdução ao R | R para Estudantes de Marketing
…
# Deixamos de lado a transformacao da overall_satisfaction
# e deixamos de fora o comando filter para garantir que nao retenhamos apenas os dados das dez cidades mais populosas

Tabelas de frequência

Cada observação em nosso conjunto de dados é uma sala ou quarto; portanto, sabemos que nossos dados contêm informações sobre 17651 quartos. Digamos que queremos saber quantos quartos existem por cidade:

airbnb%>%
 group_by(city)%>% # Use a funcao group_by para agrupar o quadro de dados do airbnb (fornecido pelo pipe na linha anterior) por cidade
 summarise(nr_per_city = n()) # Resuma este objeto agrupado (fornecido pelo pipe na linha anterior): peca ao R para criar uma nova variavel nr_per_city que possua o numero de observacoes em cada grupo (cidade)

## `summarise()` ungrouping output (override with `.groups` argument)

## # A tibble: 43 x 2
##    city        nr_per_city
##    <chr>             <int>
##  1 Aalst                74
##  2 Antwerpen          1610
##  3 Arlon                46
##  4 Ath                  47
##  5 Bastogne            145
##  6 Brugge             1094
##  7 Brussel            6715
##  8 Charleroi           118
##  9 Dendermonde          45
## 10 Diksmuide            27
## # ... with 33 more rows

Dizemos ao R para pegar o objeto airbnb, agrupá-lo por cidade e resumi-lo (summarise). O resumo que queremos é o número de observações por grupo. Nesse caso, as cidades formam os grupos. Os grupos sempre serão a primeira coluna em nossa saída. Obtemos o número de observações por grupo com a função n(). Esses números são armazenados em uma nova coluna denominada nr_per_city.

Como você pode ver, essas frequências são classificadas em ordem alfabética por cidade. Em vez disso, podemos classificá-los pelo número de quartos por cidade:

airbnb %>% 
  group_by(city) %>%
  summarise(nr_per_city = n()) %>%
  arrange(nr_per_city) # Usa a funcao arrange para classificar em uma coluna selecionada

## `summarise()` ungrouping output (override with `.groups` argument)

## # A tibble: 43 x 2
##    city         nr_per_city
##    <chr>              <int>
##  1 Tielt                 24
##  2 Diksmuide             27
##  3 Moeskroen             28
##  4 Roeselare             41
##  5 Eeklo                 43
##  6 Dendermonde           45
##  7 Arlon                 46
##  8 Ath                   47
##  9 Waremme               51
## 10 Sint-Niklaas          52
## # ... with 33 more rows

Mostra a cidade com o menor número de quartos no topo. Para exibir a cidade com mais quartos no topo, classifique em ordem decrescente:

airbnb %>% 
  group_by(city) %>%
  summarise(nr_per_city = n()) %>%
  arrange(desc(nr_per_city)) # Classifica por ordem descendente

## `summarise()` ungrouping output (override with `.groups` argument)

## # A tibble: 43 x 2
##    city            nr_per_city
##    <chr>                 <int>
##  1 Brussel                6715
##  2 Antwerpen              1610
##  3 Gent                   1206
##  4 Brugge                 1094
##  5 LiÃ¨ge                  667
##  6 Verviers                631
##  7 Oostende                527
##  8 Nivelles                505
##  9 Halle-Vilvoorde         471
## 10 Leuven                  434
## # ... with 33 more rows

Você verá que a capital Bruxelas tem mais quartos em oferta, seguidos por Antwerpen e Gent. Observe que isso é muito parecido com trabalhar com a Tabela Dinâmica no Excel. Você poderia ter feito tudo isso no Excel, mas isso tem várias desvantagens, especialmente ao trabalhar com grandes conjuntos de dados como o nosso: você não tem registro do que clicou, de como classificou os dados e do que pode ter copiado ou excluído. No Excel, é mais fácil cometer erros acidentais sem perceber do que no R. No R, você tem seu script, para poder voltar e verificar todas as etapas de sua análise.

Nota: você também poderia ter feito isso sem o operador pipe:

airbnb.grouped <- group_by(airbnb, city)
airbnb.grouped.summary <- summarise(airbnb.grouped, nr_per_city = n())

## `summarise()` ungrouping output (override with `.groups` argument)

arrange(airbnb.grouped.summary, desc(nr_per_city))

## # A tibble: 43 x 2
##    city            nr_per_city
##    <chr>                 <int>
##  1 Brussel                6715
##  2 Antwerpen              1610
##  3 Gent                   1206
##  4 Brugge                 1094
##  5 LiÃ¨ge                  667
##  6 Verviers                631
##  7 Oostende                527
##  8 Nivelles                505
##  9 Halle-Vilvoorde         471
## 10 Leuven                  434
## # ... with 33 more rows
…
Vamos calcular algumas estatísticas mais descritivas para ver se nosso palpite está correto:

airbnb %>%
  group_by(city) %>%
  summarise(nr_per_city = n(), 
            average_price = mean(price),
            median_price = median(price), # calcula a mediana dos precos por grupo (city) 
            max_price = max(price)) %>% # calcula o preco maximo por grupo (city)
  arrange(desc(median_price),
          desc(max_price)) # ordena em descendente pela mediana de preco entao pelo preco maximo

## `summarise()` ungrouping output (override with `.groups` argument)

## # A tibble: 43 x 5
##    city              nr_per_city average_price median_price max_price
##    <chr>                   <int>         <dbl>        <dbl>     <dbl>
##  1 Tielt                      24          129.          112       318
##  2 Ieper                     143          151.          111       695
##  3 Verviers                  631          159.          105      1769
##  4 Brugge                   1094          126.          105      1414
##  5 Bastogne                  145          181.          100      1650
##  6 Veurne                    350          119.          100       943
##  7 Marche-en-Famenne         266          124.          100       472
##  8 Dinant                    286          144.           95      1284
##  9 Tongeren                  173          127.           95       990
## 10 NeufchÃ¢teau              160          141.           95       872
## # ... with 33 more rows
…
